Location,Date Received,Date Reported,E Depth,1:1 Soil pH,WDRF Buffer pH,1:1 S Salts mmho/cm,Texture No,Organic Matter LOI %,Nitrate-N ppm N,lbs N/A,Potassium ppm K,Sulfate-S ppm S,Calcium ppm Ca,Magnesium ppm Mg,Sodium ppm Na,CEC/Sum of Cations me/100g,%H Sat,%K Sat,%Ca Sat,%Mg Sat,%Na Sat,Mehlich P-III ppm P,% Sand,% Silt,% Clay,Texture
COH1,5/19/2017,5/23/2017,12,8,7.2,0.66,2,2.6,41.3,149,447,74.8,5349,706,138,34.4,0,3,78,17,2,31,35,25,40,Clay Loam
COH1,5/19/2017,5/23/2017,12,8.2,7.2,0.67,2,2.6,58.9,212,430,121,5773,828,161,37.6,0,3,77,18,2,41,31,27,42,Clay
COH1,5/19/2017,5/23/2017,12,8.3,7.2,0.68,2,2.7,55.9,201,373,112,5555,788,123,35.8,0,3,78,18,1,31,31,25,44,Clay
COH1,5/19/2017,5/23/2017,12,8.3,7.2,0.65,2,2.7,35.3,127,366,110,5522,811,129,35.9,0,3,76,19,2,33,32,24,44,Clay
DEH1,6/8/2017,6/12/2017,12,6,6.6,0.22,2,1.6,19.1,69,120,15.9,321,57,16,6.5,62,5,25,7,1,87,78,10,12,Sandy Loam
GAH1,5/8/2017,5/10/2017,12,6.6,7.2,0.06,2,1,1.4,5,95,10.6,516,66,7,3.4,0,7,76,16,1,123,79,11,10,Sandy Loam
IAH1,5/15/2017,5/17/2017,12,6.1,6.5,0.34,2,4.8,31.2,112,149,64.5,3771,914,27,32.4,17,1,58,24,0,23,11,45,44,Silty Clay
IAH2,5/15/2017,5/17/2017,12,6.2,6.5,0.26,2,3.9,36,130,99,7.5,2794,391,10,22.2,21,1,63,15,0,26,32,32,36,Clay Loam
IAH3,5/15/2017,5/17/2017,12,6.5,6.7,0.1,2,3.7,7.4,27,102,5.2,2786,322,12,19.8,15,1,70,14,0,23,12,48,40,Silty Clay Loam
IAH4,5/15/2017,5/17/2017,12,6.1,6.4,0.27,2,4.6,30.1,108,106,19.6,3568,569,10,28.5,20,1,62,17,0,11,40,26,34,Clay Loam
ILH1,6/5/2017,6/7/2017,12,5.9,6.6,0.31,2,3.2,45.6,164,137,4.6,1885,369,13,16.7,23,2,56,18,0,27,16,48,36,Silty Clay Loam
ILH2,5/3/2017,5/5/2017,12,6,6.5,0.11,2,3.7,13.1,47,163,5.2,2384,432,11,21,24,2,57,17,0,24,12,55,33,Silty Clay Loam
MIH1,6/9/2017,6/13/2017,12,6.6,7.2,0.33,2,2.8,45.7,165,118,16.4,1153,186,21,7.7,0,4,75,20,1,24,62,20,18,Sandy Loam
MIH1,6/9/2017,6/13/2017,12,6.8,7.2,0.35,2,2.6,52.1,188,117,26.1,1126,179,24,7.5,0,4,75,20,1,20,61,19,20,Sandy Loam
MNH1,6/1/2017,6/5/2017,12,7.4,7.2,0.28,2,7.1,11.9,43,130,3,4997,460,12,29.2,0,1,86,13,0,20,32,27,41,Clay
MOH1,6/6/2017,6/8/2017,12,6.4,6.9,0.4,2,1.9,21.4,77,130,3.6,1987,267,22,13.3,5,3,74,17,1,31,10,63,27,Silt Loam
NCH1,11/15/2017,11/20/2017,12,5.4,6,0.16,2,3.4,17.2,62,189,14.9,641,127,16,15.1,68,3,21,7,0,66,63,15,22,Sandy Clay Loam
NEH3 (IRRIGATED),6/22/2017,6/26/2017,12,6.6,7.2,0.17,2,2.7,23.1,83,690,6.6,1615,287,10,12.3,0,14,66,19,0,64,35,37,28,Clay Loam
NEH4 (NON IRRIGATED),6/22/2017,6/26/2017,12,5.6,6.7,0.14,2,2.4,25.7,93,529,4.8,1459,244,10,14.2,25,10,51,14,0,32,49,23,28,Sandy Clay Loam
NYH1,5/24/2017,5/26/2017,12,8,7.2,0.13,2,3.2,5.7,20,57,8.2,2223,238,8,13.3,0,1,84,15,0,19,40,33,27,Loam
NYH2,5/26/2017,5/31/2017,12,7.8,7.2,0.25,2,3.2,21.4,77,53,7.2,2549,264,14,15.1,0,1,84,15,0,13,35,35,30,Clay Loam
NYH3,5/26/2017,5/31/2017,12,7.9,7.2,0.22,2,3.1,12.7,46,55,6.9,2431,240,13,14.4,0,1,85,14,0,13,38,34,28,Clay Loam
NYH4,5/26/2017,5/31/2017,12,7.9,7.2,0.24,2,2.9,12.9,46,53,6.8,2163,237,11,13,0,1,83,15,0,11,36,32,32,Clay Loam
OHH1,8/29/2017,8/31/2017,12,6.2,6.5,0.19,2,4.2,16.2,58,193,12.1,3251,727,15,28,18,2,58,22,0,53,15,39,46,Clay
ONH2,1/18/2017,1/20/2017,12,7,7.2,0.57,2,5,99,356,92,18.8,2803,174,26,15.8,0,1,89,9,1,94,50,20,30,Sandy Clay Loam
ONH2,9/27/2017,9/29/2017,12,6.7,7.2,0.25,2,4.5,43.5,157,83,16.2,2529,150,20,14.2,0,2,88,9,1,19,12,60,28,Silty Clay Loam
WIH1,5/22/2017,5/24/2017,12,7.1,7.2,0.22,2,4.3,39,140,326,3.8,1860,538,8,14.7,0,6,63,31,0,132,17,47,36,Silty Clay Loam
WIH2,5/22/2017,5/24/2017,12,6.9,7.2,0.12,2,3.2,30.2,109,201,3.5,1734,548,10,13.8,0,4,63,33,0,47,14,55,31,Silty Clay Loam
