[
   {
      "model": "brapi.scale",
      "pk": "CO_322:0000348",
      "fields": {
         "cropdbid": "maize",
         "name": "cm",
         "datatypeDbId": 1
      }
   },
   {
      "model": "brapi.scale",
      "pk": "CO_322:0000206",
      "fields": {
         "cropdbid": "maize",
         "name": "mm",
         "datatypeDbId": 1
      }
   },
   {
      "model": "brapi.scale",
      "pk": "CO_322:0000515",
      "fields": {
         "cropdbid": "maize",
         "name": "row/ear",
         "datatypeDbId": 1
      }
   },
   {
      "model": "brapi.scale",
      "pk": "CO_322:0000354",
      "fields": {
         "cropdbid": "maize",
         "name": "plant/plot",
         "datatypeDbId": 1
      }
   },
   {
      "model": "brapi.scale",
      "pk": "CO_322:0000350",
      "fields": {
         "cropdbid": "maize",
         "name": "%",
         "datatypeDbId": 1
      }
   },
   {
      "model": "brapi.scale",
      "pk": "CO_322:0000352",
      "fields": {
         "cropdbid": "maize",
         "name": "day",
         "datatypeDbId": 3
      }
   },
   {
      "model": "brapi.scale",
      "pk": "CO_322:0000796",
      "fields": {
         "cropdbid": "maize",
         "name": "yyyymmdd",
         "datatypeDbId": 3
      }
   },
   {
      "model": "brapi.scale",
      "pk": "CO_322:0000510",
      "fields": {
         "cropdbid": "maize",
         "name": "\u00b0C day",
         "datatypeDbId": 1
      }
   },
   {
      "model": "brapi.scale",
      "pk": "CO_322:0001007",
      "fields": {
         "cropdbid": "maize",
         "name": "lb/bsh",
         "datatypeDbId": 1
      }
   },
   {
      "model": "brapi.scale",
      "pk": "CO_322:0000622",
      "fields": {
         "cropdbid": "maize",
         "name": "t/ha",
         "datatypeDbId": 1
      }
   },
   {
      "model": "brapi.scale",
      "pk": "CO_322:0000729",
      "fields": {
         "cropdbid": "maize",
         "name": "kg/ha",
         "datatypeDbId": 1
      }
   },
   {
      "model": "brapi.scale",
      "pk": "CO_322:0000358",
      "fields": {
         "cropdbid": "maize",
         "name": "kg/plot",
         "datatypeDbId": 1
      }
   },
   {
      "model": "brapi.scale",
      "pk": "CO_322:0000733",
      "fields": {
         "cropdbid": "maize",
         "name": "g/plot",
         "datatypeDbId": 1
      }
   },
   {
      "model": "brapi.scale",
      "pk": "CO_322:0001015",
      "fields": {
         "cropdbid": "maize",
         "name": "lb/plot",
         "datatypeDbId": 1
      }
   },
   {
      "model": "brapi.scale",
      "pk": "CO_322:0000753",
      "fields": {
         "cropdbid": "maize",
         "name": "Rank number",
         "datatypeDbId": 1
      }
   }
]